Capítulo 9 Visualização de dados na prática | Introdução à Ciência de Dados
…
Jornalistas e lobistas contam histórias dramáticas. Esse é o trabalho deles. Eles contam histórias sobre eventos extraordinários e pessoas incomuns. As pilhas de histórias dramáticas se acumulam na mente das pessoas gerando visões de mundo excessivamente dramáticas, estresse e fortes sentimentos negativos: “O mundo está ficando pior!” “Somos nós contra eles!” “Outras pessoas são estranhas!” “A população continua crescendo!” e “Ninguém liga!”

Hans Rosling decidiu, de maneira dramática, educar o público sobre tendências reais orientadas a dados usando visualizações eficazes. Esta seção é baseada em duas palestras que exemplificam essa perspectiva educacional: Novas Perspectivas Sobre a Pobreza31 e As Melhores Estatísticas Jamais Vistas32. Especificamente, nesta seção, usamos dados para tentar responder às duas perguntas a seguir:

É uma caracterização justa dizer que, nos dias de hoje, o mundo está dividido em nações ocidentais ricas e nações em desenvolvimento na África, Ásia e América Latina?

A desigualdade de renda piorou em todos os países nos últimos 40 anos?

Para responder a essas perguntas, usaremos a base de dados gapminder fornecida pelo dslabs. Esse dataset foi criado usando diversas planilhas disponibilizadas pela Fundação Gapminder. Você pode acessar essa tabela desta maneira:

library(tidyverse)
library(dslabs)
data(gapminder)
gapminder %>% as_tibble()
#> # A tibble: 10,545 x 9
#>   country  year infant_mortality life_expectancy fertility population
#>   <fct>   <int>            <dbl>           <dbl>     <dbl>      <dbl>
#> 1 Albania  1960            115.             62.9      6.19    1636054
#> 2 Algeria  1960            148.             47.5      7.65   11124892
#> 3 Angola   1960            208              36.0      7.32    5270844
#> 4 Antigu…  1960             NA              63.0      4.43      54681
#> 5 Argent…  1960             59.9            65.4      3.11   20619075
#> # … with 10,540 more rows, and 3 more variables: gdp <dbl>,
#> #   continent <fct>, region <fct>
…
