Capítulo 4 tidyverse | Introdução à Ciência de Dados
…
que agora é numérico:

class(us_murder_rate)
#> [1] "numeric"

4.7.3 Como agrupar e resumir com group_by

Uma operação comum na exploração de dados é primeiro dividir os dados em grupos e depois calcular resumos para cada grupo. Por exemplo, podemos querer calcular a média e o desvio padrão para as alturas de homens e mulheres separadamente. A função group_by nos ajuda a fazer isso.

Se escrevermos isso:

heights %>% group_by(sex)
#> # A tibble: 1,050 x 2
#> # Groups:   sex [2]
#>   sex   height
#>   <fct>  <dbl>
#> 1 Male      75
#> 2 Male      70
#> 3 Male      68
#> 4 Male      74
#> 5 Male      61
#> # … with 1,045 more rows
…
4. Calcule a média e o desvio padrão para as mulheres, mas para cada faixa etária separadamente, em vez de uma década selecionada, como na pergunta 1. Observe que as faixas etárias são definidas por AgeDecade. Dica: em vez de filtrar por idade e sexo, filtre por Gender e depois use group_by.

5. Repita o exercício 4 para os meninos.

6. Podemos combinar os dois resumos dos exercícios 4 e 5 em uma linha de código. Isto é porque group_by permite agrupar por mais de uma variável. Obtenha uma excelente tabela de resumo usando group_by(AgeDecade, Gender).

7. Para homens entre 40 e 49 anos, compare a pressão arterial sistólica por raça, conforme aparece na variável Race1. Encomende a tabela resultante com base na pressão arterial sistólica média mais baixa para a mais alta.

4.10 Tibbles

Os dados tidy_devem ser armazenados em_data frames. Discutimos o data frame na Seção 2.3.1 e estamos usando o data frame murders ao longo do livro. Na seção 4.7.3 nós introduzimos a função group_by, que permite estratificar os dados antes de calcular as estatísticas de resumo. Mas onde estão as informações do grupo armazenadas no data frame?

murders %>% group_by(region)
#> # A tibble: 51 x 6
#> # Groups:   region [4]
#>   state      abb   region population total  rate
#>   <chr>      <chr> <fct>       <dbl> <dbl> <dbl>
#> 1 Alabama    AL    South     4779736   135  2.82
#> 2 Alaska     AK    West       710231    19  2.68
#> 3 Arizona    AZ    West      6392017   232  3.63
#> 4 Arkansas   AR    South     2915918    93  3.19
#> 5 California CA    West     37253956  1257  3.37
#> # … with 46 more rows
…
